<svg width="21" height="32" viewBox="0 0 21 32" fill="none" xmlns="http://www.w3.org/2000/svg">
<path d="M20.0005 17.6995L6.3695 31.2952C5.42735 32.2349 3.90389 32.2349 2.97176 31.2952L0.706608 29.0359C-0.235536 28.0962 -0.235536 26.5767 0.706608 25.647L10.3686 16.01L0.706608 6.37301C-0.235536 5.4333 -0.235536 3.91378 0.706608 2.98407L2.96174 0.70478C3.90389 -0.234927 5.42735 -0.234927 6.35947 0.70478L19.9905 14.3005C20.9427 15.2402 20.9427 16.7598 20.0005 17.6995Z" fill="white"/>
</svg>
